../res/whitesq.jpg,"[[134, 56], [289, 53], [292, 188], [137, 191]]",245,410
../res/whitesq.jpg,"[[134, 56], [289, 53], [292, 188], [137, 191]]",245,410
../res/whitesq.jpg,"[[134, 56], [289, 53], [292, 188], [137, 191]]",245,410
../res/whitesq.jpg,"[[134, 56], [289, 53], [292, 188], [137, 191]]",245,410
../res/whitesq.jpg,"[[134, 56], [289, 53], [292, 188], [137, 191]]",245,410
../res/gball2.jpg,"[[1, 13], [3, 440], [775, 438], [777, 1]]",442,780
../res/capture.jpg,"[[1, 1], [1, 525], [346, 525], [345, 1]]",527,353
../res/eyes.jpg,"[[1, 1], [1, 145], [341, 145], [341, 1]]",147,343
../res/eyee.jpg,"[[1, 1], [1, 329], [351, 329], [350, 8]]",331,353
../res/capture.jpg,"[[1, 1], [1, 525], [346, 525], [345, 1]]",527,353
../res/whitesq.jpg,"[[134, 56], [289, 53], [292, 188], [137, 191]]",245,410
../res/capture.jpg,"[[1, 1], [1, 525], [346, 525], [345, 1]]",527,353
../res/eyee.jpg,"[[1, 1], [1, 329], [351, 329], [350, 8]]",331,353
../res/eyee.jpg,"[[1, 1], [1, 329], [351, 329], [350, 8]]",331,353
../res/eyee.jpg,"[[1, 1], [1, 329], [351, 329], [350, 8]]",331,353
../res/face2.PNG,"[[1, 1], [1, 536], [520, 536], [520, 1]]",538,531
../res/face2.PNG,"[[1, 1], [1, 536], [520, 536], [520, 1]]",538,531
../res/Capture.JPG,"[[1, 1], [1, 525], [346, 525], [345, 1]]",527,353
../res/Capture.JPG,"[[1, 1], [1, 525], [346, 525], [345, 1]]",527,353
../res/Capture.JPG,"[[1, 1], [1, 525], [346, 525], [345, 1]]",527,353
../res/Capture.JPG,"[[1, 1], [1, 525], [346, 525], [345, 1]]",527,353
../res/face2.PNG,"[[1, 1], [1, 536], [520, 536], [520, 1]]",538,531
../res/face2.PNG,"[[1, 1], [1, 536], [520, 536], [520, 1]]",538,531
../res/face2.PNG,"[[1, 1], [1, 536], [520, 536], [520, 1]]",538,531
../res/face2.PNG,"[[1, 1], [1, 536], [520, 536], [520, 1]]",538,531
